{
  "welcome": {
    "hero": {
      "title": "Angular WebSite Demo",
      "desc": "Esempio di sito web dinamico con editor",
      "subdesc": "bla bla bla",
      "buttonLabel": "Visit XYZ",
      "buttonUrl": "http://www.google.com"
    },
    "footer": {
      "bg": "red",
      "row1": "bla bla bla footer",
      "row2": "Copyright FB",
      "email": "info@fabiobiondi.io"
    }
  },
  "news": [
    {
      "id": 1,
      "title": "bla bla 1",
      "img": "https://randomuser.me/api/portraits/men/71.jpg"
    },
    {
      "id": 2,
      "title": "bla bla 2",
      "img": "https://randomuser.me/api/portraits/men/73.jpg"
    },
    {
      "id": 3,
      "title": "bla bla 3",
      "img": "https://randomuser.me/api/portraits/men/72.jpg"
    }
  ],
  "devices": [
    {
      "id": 40,
      "name": "IPhone",
      "brand": "apple",
      "ram": 4444,
      "cost": 111,
      "creationDate": 1620115113000,
      "country": "Italy"
    },
    {
      "id": 1,
      "name": "One Plusx",
      "brand": "android",
      "ram": 8000,
      "cost": 900,
      "creationDate": 1610175113000,
      "country": "Germany",
      "cover": true
    },
    {
      "id": 32,
      "name": "Windows Phone",
      "brand": "microsoft",
      "ram": 1000,
      "cost": 100,
      "creationDate": 1610175113000,
      "country": "Finland",
      "cover": true
    },
    {
      "name": "ewfwef",
      "ram": "342243",
      "cost": 2343223,
      "id": 41
    },
    {
      "name": "ewfew",
      "ram": "ewfwefew",
      "cost": 2342323,
      "id": 42
    },
    {
      "name": "ewfew",
      "ram": "ewfwefew",
      "cost": 2342323,
      "id": 43
    },
    {
      "name": "32r32",
      "ram": "2323432",
      "cost": 232332,
      "id": 44
    }
  ]
}